ISO-10303-21;
HEADER;
FILE_DESCRIPTION (( 'STEP AP214' ),
    '1' );
FILE_NAME ('oxygenSourceCap.STEP',
    '2020-04-01T13:18:00',
    ( '' ),
    ( '' ),
    'SwSTEP 2.0',
    'SolidWorks 2018',
    '' );
FILE_SCHEMA (( 'AUTOMOTIVE_DESIGN' ));
ENDSEC;

DATA;
#1 = ORIENTED_EDGE ( 'NONE', *, *, #585, .F. ) ;
#2 = VERTEX_POINT ( 'NONE', #383 ) ;
#3 = DIRECTION ( 'NONE',  ( -1.000000000000000000, 1.636531581110195409E-16, 0.0000000000000000000 ) ) ;
#4 = CARTESIAN_POINT ( 'NONE',  ( 4.500000000000000000, 0.4999999999999970024, 0.0000000000000000000 ) ) ;
#5 = DIRECTION ( 'NONE',  ( 0.0000000000000000000, 0.0000000000000000000, 1.000000000000000000 ) ) ;
#6 = STYLED_ITEM ( 'NONE', ( #577 ), #102 ) ;
#7 = LINE ( 'NONE', #273, #223 ) ;
#8 = ORIENTED_EDGE ( 'NONE', *, *, #513, .F. ) ;
#9 = ORIENTED_EDGE ( 'NONE', *, *, #446, .F. ) ;
#10 = CARTESIAN_POINT ( 'NONE',  ( 12.90000000000000213, 2.000000000000000000, 1.579794370900085936E-15 ) ) ;
#11 = AXIS2_PLACEMENT_3D ( 'NONE', #292, #489, #395 ) ;
#12 = CARTESIAN_POINT ( 'NONE',  ( -10.59999999999999254, 21.00000000000000355, 0.0000000000000000000 ) ) ;
#13 = DIRECTION ( 'NONE',  ( 0.0000000000000000000, 0.0000000000000000000, -1.000000000000000000 ) ) ;
#14 = UNCERTAINTY_MEASURE_WITH_UNIT (LENGTH_MEASURE( 1.000000000000000082E-05 ), #285, 'distance_accuracy_value', 'NONE');
#15 = DIRECTION ( 'NONE',  ( 0.0000000000000000000, 0.0000000000000000000, 1.000000000000000000 ) ) ;
#16 = EDGE_CURVE ( 'NONE', #511, #82, #316, .T. ) ;
#17 = FACE_OUTER_BOUND ( 'NONE', #359, .T. ) ;
#18 = ADVANCED_FACE ( 'NONE', ( #310 ), #356, .F. ) ;
#19 = FACE_BOUND ( 'NONE', #473, .T. ) ;
#20 = DIRECTION ( 'NONE',  ( -1.329954591537802252E-16, -1.000000000000000000, -0.0000000000000000000 ) ) ;
#21 = EDGE_LOOP ( 'NONE', ( #413, #231, #149, #268, #174 ) ) ;
#22 =( NAMED_UNIT ( * ) PLANE_ANGLE_UNIT ( ) SI_UNIT ( $, .RADIAN. ) );
#23 = ADVANCED_FACE ( 'NONE', ( #290 ), #230, .T. ) ;
#24 = AXIS2_PLACEMENT_3D ( 'NONE', #148, #44, #37 ) ;
#25 = CARTESIAN_POINT ( 'NONE',  ( -12.39999999999999147, 2.506964405048756743E-15, 0.0000000000000000000 ) ) ;
#26 = DIRECTION ( 'NONE',  ( -1.000000000000000000, 0.0000000000000000000, 0.0000000000000000000 ) ) ;
#27 = PRODUCT_DEFINITION ( 'UNKNOWN', '', #409, #52 ) ;
#28 = CYLINDRICAL_SURFACE ( 'NONE', #212, 4.150000000000000355 ) ;
#29 = ORIENTED_EDGE ( 'NONE', *, *, #525, .F. ) ;
#30 = ADVANCED_FACE ( 'NONE', ( #559 ), #186, .F. ) ;
#31 = FACE_OUTER_BOUND ( 'NONE', #238, .T. ) ;
#32 = CONICAL_SURFACE ( 'NONE', #459, 2.100000000000000089, 0.7853981633974526089 ) ;
#33 = ORIENTED_EDGE ( 'NONE', *, *, #127, .F. ) ;
#34 = AXIS2_PLACEMENT_3D ( 'NONE', #332, #58, #493 ) ;
#35 = DIRECTION ( 'NONE',  ( -1.000000000000000000, 1.636531581110195409E-16, 0.0000000000000000000 ) ) ;
#36 = DIRECTION ( 'NONE',  ( 0.0000000000000000000, -0.7071067811865444641, -0.7071067811865505703 ) ) ;
#37 = DIRECTION ( 'NONE',  ( -1.000000000000000000, 1.329954591537802498E-16, 0.0000000000000000000 ) ) ;
#38 = CIRCLE ( 'NONE', #252, 4.150000000000000355 ) ;
#39 = ORIENTED_EDGE ( 'NONE', *, *, #531, .T. ) ;
#40 = CARTESIAN_POINT ( 'NONE',  ( 7.979727549226818934E-16, 6.000000000000002665, 0.0000000000000000000 ) ) ;
#41 = EDGE_LOOP ( 'NONE', ( #323, #364, #399, #55 ) ) ;
#42 = PRESENTATION_LAYER_ASSIGNMENT (  '', '', ( #6 ) ) ;
#43 = ORIENTED_EDGE ( 'NONE', *, *, #431, .T. ) ;
#44 = DIRECTION ( 'NONE',  ( 1.329954591537802498E-16, 1.000000000000000000, -0.0000000000000000000 ) ) ;
#45 = CARTESIAN_POINT ( 'NONE',  ( 4.500000000000000000, 0.4999999999999970024, 0.0000000000000000000 ) ) ;
#46 = DIRECTION ( 'NONE',  ( 1.000000000000000000, 0.0000000000000000000, 0.0000000000000000000 ) ) ;
#47 = LINE ( 'NONE', #540, #546 ) ;
#48 = ORIENTED_EDGE ( 'NONE', *, *, #16, .T. ) ;
#49 = CARTESIAN_POINT ( 'NONE',  ( -10.59999999999999964, 6.000000000000004441, 0.0000000000000000000 ) ) ;
#50 = CARTESIAN_POINT ( 'NONE',  ( 4.500000000000002665, 21.00000000000000355, 0.0000000000000000000 ) ) ;
#51 = DIRECTION ( 'NONE',  ( 1.329954591537802498E-16, 1.000000000000000000, -0.0000000000000000000 ) ) ;
#52 = PRODUCT_DEFINITION_CONTEXT ( 'detailed design', #74, 'design' ) ;
#53 = VERTEX_POINT ( 'NONE', #427 ) ;
#54 = CARTESIAN_POINT ( 'NONE',  ( 6.599999999999999645, 0.4999999999999970024, 0.0000000000000000000 ) ) ;
#55 = ORIENTED_EDGE ( 'NONE', *, *, #264, .T. ) ;
#56 = CARTESIAN_POINT ( 'NONE',  ( 6.649772957689125890E-17, 0.5000000000000082157, 0.0000000000000000000 ) ) ;
#57 = DIRECTION ( 'NONE',  ( -0.7071067811865474617, 0.7071067811865476838, 0.0000000000000000000 ) ) ;
#58 = DIRECTION ( 'NONE',  ( 1.329954591537802498E-16, 1.000000000000000000, -0.0000000000000000000 ) ) ;
#59 = DIRECTION ( 'NONE',  ( -1.000000000000000000, 1.329954591537802991E-16, 0.0000000000000000000 ) ) ;
#60 = LINE ( 'NONE', #386, #539 ) ;
#61 = ORIENTED_EDGE ( 'NONE', *, *, #187, .T. ) ;
#62 = DIRECTION ( 'NONE',  ( 0.0000000000000000000, -1.000000000000000000, 0.0000000000000000000 ) ) ;
#63 = ADVANCED_FACE ( 'NONE', ( #342 ), #405, .F. ) ;
#64 = AXIS2_PLACEMENT_3D ( 'NONE', #407, #126, #597 ) ;
#65 = AXIS2_PLACEMENT_3D ( 'NONE', #75, #115, #535 ) ;
#66 = DIRECTION ( 'NONE',  ( -1.329954591537802498E-16, -1.000000000000000000, 0.0000000000000000000 ) ) ;
#67 = APPLICATION_CONTEXT ( 'automotive_design' ) ;
#68 = ADVANCED_FACE ( 'NONE', ( #260 ), #32, .F. ) ;
#69 = APPLICATION_PROTOCOL_DEFINITION ( 'draft international standard', 'automotive_design', 1998, #74 ) ;
#70 = VECTOR ( 'NONE', #458, 1000.000000000000114 ) ;
#71 = CARTESIAN_POINT ( 'NONE',  ( -4.499999999999999112, 6.000000000000001776, 0.0000000000000000000 ) ) ;
#72 = VERTEX_POINT ( 'NONE', #233 ) ;
#73 = ORIENTED_EDGE ( 'NONE', *, *, #446, .T. ) ;
#74 = APPLICATION_CONTEXT ( 'automotive_design' ) ;
#75 = CARTESIAN_POINT ( 'NONE',  ( 4.500000000000000888, 6.000000000000001776, 0.0000000000000000000 ) ) ;
#76 = AXIS2_PLACEMENT_3D ( 'NONE', #370, #136, #275 ) ;
#77 = AXIS2_PLACEMENT_3D ( 'NONE', #433, #576, #100 ) ;
#78 = LINE ( 'NONE', #375, #558 ) ;
#79 = VERTEX_POINT ( 'NONE', #475 ) ;
#80 = EDGE_CURVE ( 'NONE', #114, #561, #322, .T. ) ;
#81 = DIRECTION ( 'NONE',  ( 1.329954591537802498E-16, 1.000000000000000000, -0.0000000000000000000 ) ) ;
#82 = VERTEX_POINT ( 'NONE', #54 ) ;
#83 = ORIENTED_EDGE ( 'NONE', *, *, #374, .F. ) ;
#84 = DIRECTION ( 'NONE',  ( 1.000000000000000000, -1.329954591537802498E-16, 0.0000000000000000000 ) ) ;
#85 = AXIS2_PLACEMENT_3D ( 'NONE', #526, #341, #538 ) ;
#86 = DIRECTION ( 'NONE',  ( -1.329954591537802498E-16, -1.000000000000000000, 0.0000000000000000000 ) ) ;
#87 = CARTESIAN_POINT ( 'NONE',  ( 2.659909183075607955E-16, 2.000000000000001776, 0.0000000000000000000 ) ) ;
#88 = FACE_OUTER_BOUND ( 'NONE', #21, .T. ) ;
#89 = FACE_OUTER_BOUND ( 'NONE', #543, .T. ) ;
#90 = DIRECTION ( 'NONE',  ( 0.0000000000000000000, -1.000000000000000000, 0.0000000000000000000 ) ) ;
#91 = ORIENTED_EDGE ( 'NONE', *, *, #392, .F. ) ;
#92 = DIRECTION ( 'NONE',  ( -1.329954591537802252E-16, -1.000000000000000000, -0.0000000000000000000 ) ) ;
#93 = AXIS2_PLACEMENT_3D ( 'NONE', #421, #514, #508 ) ;
#94 = DIRECTION ( 'NONE',  ( 8.659560562354969836E-17, -0.7071067811865444641, 0.7071067811865505703 ) ) ;
#95 = FACE_BOUND ( 'NONE', #220, .T. ) ;
#96 = AXIS2_PLACEMENT_3D ( 'NONE', #367, #366, #3 ) ;
#97 = ORIENTED_EDGE ( 'NONE', *, *, #208, .T. ) ;
#98 = EDGE_LOOP ( 'NONE', ( #33, #424, #48, #73, #39 ) ) ;
#99 = DIRECTION ( 'NONE',  ( 0.0000000000000000000, 0.0000000000000000000, -1.000000000000000000 ) ) ;
#100 = DIRECTION ( 'NONE',  ( -1.000000000000000000, 1.329954591537802498E-16, 0.0000000000000000000 ) ) ;
#101 = FILL_AREA_STYLE ('',( #324 ) ) ;
#102 = MANIFOLD_SOLID_BREP ( 'Sfazowanie1', #352 ) ;
#103 = CIRCLE ( 'NONE', #555, 12.39999999999999147 ) ;
#104 = CIRCLE ( 'NONE', #65, 2.099999999999999645 ) ;
#105 = EDGE_LOOP ( 'NONE', ( #309, #312, #261, #365 ) ) ;
#106 = AXIS2_PLACEMENT_3D ( 'NONE', #4, #62, #523 ) ;
#107 = DIRECTION ( 'NONE',  ( 0.0000000000000000000, 0.0000000000000000000, -1.000000000000000000 ) ) ;
#108 = CARTESIAN_POINT ( 'NONE',  ( 4.500000000000000000, 0.4999999999999970024, 2.100000000000000089 ) ) ;
#109 = DIRECTION ( 'NONE',  ( 0.0000000000000000000, -0.7071067811865474617, -0.7071067811865474617 ) ) ;
#110 = CIRCLE ( 'NONE', #360, 2.099999999999999645 ) ;
#111 = VECTOR ( 'NONE', #152, 1000.000000000000114 ) ;
#112 = ORIENTED_EDGE ( 'NONE', *, *, #116, .T. ) ;
#113 = APPLICATION_PROTOCOL_DEFINITION ( 'draft international standard', 'automotive_design', 1998, #67 ) ;
#114 = VERTEX_POINT ( 'NONE', #520 ) ;
#115 = DIRECTION ( 'NONE',  ( -1.329954591537802498E-16, -1.000000000000000000, 0.0000000000000000000 ) ) ;
#116 = EDGE_CURVE ( 'NONE', #481, #125, #480, .T. ) ;
#117 = DIRECTION ( 'NONE',  ( 1.329954591537802498E-16, 1.000000000000000000, -0.0000000000000000000 ) ) ;
#118 = DIRECTION ( 'NONE',  ( 1.329954591537802498E-16, 1.000000000000000000, -0.0000000000000000000 ) ) ;
#119 = AXIS2_PLACEMENT_3D ( 'NONE', #606, #321, #183 ) ;
#120 = EDGE_CURVE ( 'NONE', #53, #598, #349, .T. ) ;
#121 = CIRCLE ( 'NONE', #225, 4.650000000000002132 ) ;
#122 = ORIENTED_EDGE ( 'NONE', *, *, #466, .T. ) ;
#123 = ORIENTED_EDGE ( 'NONE', *, *, #168, .F. ) ;
#124 = AXIS2_PLACEMENT_3D ( 'NONE', #45, #90, #133 ) ;
#125 = VERTEX_POINT ( 'NONE', #10 ) ;
#126 = DIRECTION ( 'NONE',  ( -1.329954591537802252E-16, -1.000000000000000000, -0.0000000000000000000 ) ) ;
#127 = EDGE_CURVE ( 'NONE', #2, #586, #179, .T. ) ;
#128 = DIRECTION ( 'NONE',  ( -1.329954591537802252E-16, -1.000000000000000000, -0.0000000000000000000 ) ) ;
#129 = DIRECTION ( 'NONE',  ( -1.000000000000000000, 1.344746880602176212E-16, 0.0000000000000000000 ) ) ;
#130 = CYLINDRICAL_SURFACE ( 'NONE', #64, 2.099999999999999645 ) ;
#131 = ORIENTED_EDGE ( 'NONE', *, *, #170, .T. ) ;
#132 = ORIENTED_EDGE ( 'NONE', *, *, #320, .T. ) ;
#133 = DIRECTION ( 'NONE',  ( 0.0000000000000000000, 0.0000000000000000000, 1.000000000000000000 ) ) ;
#134 = DIRECTION ( 'NONE',  ( 1.329954591537801759E-16, 1.000000000000000000, -0.0000000000000000000 ) ) ;
#135 = ORIENTED_EDGE ( 'NONE', *, *, #116, .F. ) ;
#136 = DIRECTION ( 'NONE',  ( 1.329954591537802498E-16, 1.000000000000000000, -0.0000000000000000000 ) ) ;
#137 = DIRECTION ( 'NONE',  ( 0.0000000000000000000, 0.0000000000000000000, -1.000000000000000000 ) ) ;
#138 = SURFACE_SIDE_STYLE ('',( #423 ) ) ;
#139 = CARTESIAN_POINT ( 'NONE',  ( -4.500000000000000000, 0.5000000000000038858, 0.0000000000000000000 ) ) ;
#140 = ORIENTED_EDGE ( 'NONE', *, *, #593, .T. ) ;
#141 = ORIENTED_EDGE ( 'NONE', *, *, #593, .F. ) ;
#142 = CARTESIAN_POINT ( 'NONE',  ( -4.500000000000000000, 1.456300277733893479E-15, 0.0000000000000000000 ) ) ;
#143 = EDGE_LOOP ( 'NONE', ( #425, #43, #451, #280, #505 ) ) ;
#144 = SURFACE_STYLE_USAGE ( .BOTH. , #138 ) ;
#145 = DIRECTION ( 'NONE',  ( -1.329954591537802252E-16, -1.000000000000000000, -0.0000000000000000000 ) ) ;
#146 = LINE ( 'NONE', #454, #287 ) ;
#147 = CIRCLE ( 'NONE', #150, 4.150000000000000355 ) ;
#148 = CARTESIAN_POINT ( 'NONE',  ( 1.140862594031351412E-31, 8.578207115418824536E-16, 0.0000000000000000000 ) ) ;
#149 = ORIENTED_EDGE ( 'NONE', *, *, #326, .T. ) ;
#150 = AXIS2_PLACEMENT_3D ( 'NONE', #200, #249, #529 ) ;
#151 = CARTESIAN_POINT ( 'NONE',  ( 2.792904642229386430E-15, 21.00000000000000355, 0.0000000000000000000 ) ) ;
#152 = DIRECTION ( 'NONE',  ( 0.01578750583521137951, -0.9998753695633786354, 0.0000000000000000000 ) ) ;
#153 = AXIS2_PLACEMENT_3D ( 'NONE', #474, #330, #479 ) ;
#154 = CARTESIAN_POINT ( 'NONE',  ( 7.979727549226815975E-16, 6.000000000000000000, 0.0000000000000000000 ) ) ;
#155 = CONICAL_SURFACE ( 'NONE', #119, 12.90000000000000036, 0.01578816173582483356 ) ;
#156 = VERTEX_POINT ( 'NONE', #486 ) ;
#157 = ORIENTED_EDGE ( 'NONE', *, *, #228, .T. ) ;
#158 = CARTESIAN_POINT ( 'NONE',  ( 2.051783890040880086E-31, 21.00000000000000355, 0.0000000000000000000 ) ) ;
#159 = ADVANCED_FACE ( 'NONE', ( #488 ), #584, .T. ) ;
#160 = UNCERTAINTY_MEASURE_WITH_UNIT (LENGTH_MEASURE( 1.000000000000000082E-05 ), #439, 'distance_accuracy_value', 'NONE');
#161 = STYLED_ITEM ( 'NONE', ( #296 ), #410 ) ;
#162 = AXIS2_PLACEMENT_3D ( 'NONE', #578, #337, #107 ) ;
#163 = COLOUR_RGB ( '',0.7921568627450980005, 0.8196078431372548767, 0.9333333333333333481 ) ;
#164 = CYLINDRICAL_SURFACE ( 'NONE', #484, 4.150000000000000355 ) ;
#165 = CIRCLE ( 'NONE', #599, 12.59999999999999609 ) ;
#166 = VERTEX_POINT ( 'NONE', #245 ) ;
#167 = ORIENTED_EDGE ( 'NONE', *, *, #168, .T. ) ;
#168 = EDGE_CURVE ( 'NONE', #166, #125, #60, .T. ) ;
#169 = DIRECTION ( 'NONE',  ( 1.329954591537802498E-16, 1.000000000000000000, -0.0000000000000000000 ) ) ;
#170 = EDGE_CURVE ( 'NONE', #2, #511, #104, .T. ) ;
#171 = CARTESIAN_POINT ( 'NONE',  ( -12.90000000000000036, 2.000000000000003553, 1.579794370900085738E-15 ) ) ;
#172 = VERTEX_POINT ( 'NONE', #348 ) ;
#173 = PLANE ( 'NONE',  #184 ) ;
#174 = ORIENTED_EDGE ( 'NONE', *, *, #16, .F. ) ;
#175 = EDGE_CURVE ( 'NONE', #561, #553, #218, .T. ) ;
#176 = DIRECTION ( 'NONE',  ( 1.329954591537801759E-16, 1.000000000000000000, -0.0000000000000000000 ) ) ;
#177 = DIRECTION ( 'NONE',  ( 0.0000000000000000000, -1.000000000000000000, 0.0000000000000000000 ) ) ;
#178 = CIRCLE ( 'NONE', #106, 2.100000000000000089 ) ;
#179 = LINE ( 'NONE', #193, #551 ) ;
#180 = VERTEX_POINT ( 'NONE', #301 ) ;
#181 = DIRECTION ( 'NONE',  ( 1.329954591537802498E-16, 1.000000000000000000, -0.0000000000000000000 ) ) ;
#182 = PRODUCT_RELATED_PRODUCT_CATEGORY ( 'part', '', ( #259 ) ) ;
#183 = DIRECTION ( 'NONE',  ( 1.000000000000000000, -1.344746880602175966E-16, 0.0000000000000000000 ) ) ;
#184 = AXIS2_PLACEMENT_3D ( 'NONE', #158, #361, #84 ) ;
#185 = DIRECTION ( 'NONE',  ( 1.000000000000000000, 0.0000000000000000000, 0.0000000000000000000 ) ) ;
#186 = CONICAL_SURFACE ( 'NONE', #408, 4.150000000000000355, 0.7853981633974482790 ) ;
#187 = EDGE_CURVE ( 'NONE', #400, #522, #306, .T. ) ;
#188 = CARTESIAN_POINT ( 'NONE',  ( -4.500000000000000000, 0.5000000000000038858, 0.0000000000000000000 ) ) ;
#189 = ORIENTED_EDGE ( 'NONE', *, *, #264, .F. ) ;
#190 = ORIENTED_EDGE ( 'NONE', *, *, #120, .T. ) ;
#191 = DIRECTION ( 'NONE',  ( 1.329954591537802498E-16, 1.000000000000000000, -0.0000000000000000000 ) ) ;
#192 = CARTESIAN_POINT ( 'NONE',  ( 4.500000000000000000, 0.4999999999999970024, 0.0000000000000000000 ) ) ;
#193 = CARTESIAN_POINT ( 'NONE',  ( 2.400000000000002576, 21.00000000000000355, 2.571758278209441464E-16 ) ) ;
#194 = FILL_AREA_STYLE_COLOUR ( '', #163 ) ;
#195 = CIRCLE ( 'NONE', #600, 12.59999999999999609 ) ;
#196 = ORIENTED_EDGE ( 'NONE', *, *, #563, .T. ) ;
#197 = AXIS2_PLACEMENT_3D ( 'NONE', #445, #81, #314 ) ;
#198 = DIRECTION ( 'NONE',  ( 1.329954591537802498E-16, 1.000000000000000000, -0.0000000000000000000 ) ) ;
#199 = ORIENTED_EDGE ( 'NONE', *, *, #326, .F. ) ;
#200 = CARTESIAN_POINT ( 'NONE',  ( -4.499999999999999112, 6.000000000000001776, 0.0000000000000000000 ) ) ;
#201 = DIRECTION ( 'NONE',  ( 1.329954591537802498E-16, 1.000000000000000000, -0.0000000000000000000 ) ) ;
#202 = ADVANCED_FACE ( 'NONE', ( #499 ), #463, .F. ) ;
#203 = EDGE_CURVE ( 'NONE', #274, #166, #47, .T. ) ;
#204 = ADVANCED_FACE ( 'NONE', ( #416, #334, #89 ), #295, .F. ) ;
#205 = LINE ( 'NONE', #171, #70 ) ;
#206 = DIRECTION ( 'NONE',  ( 1.329954591537802498E-16, 1.000000000000000000, -0.0000000000000000000 ) ) ;
#207 = VERTEX_POINT ( 'NONE', #254 ) ;
#208 = EDGE_CURVE ( 'NONE', #207, #464, #165, .T. ) ;
#209 = VERTEX_POINT ( 'NONE', #583 ) ;
#210 = DIRECTION ( 'NONE',  ( -1.000000000000000000, 1.636531581110195656E-16, 0.0000000000000000000 ) ) ;
#211 =( NAMED_UNIT ( * ) SI_UNIT ( $, .STERADIAN. ) SOLID_ANGLE_UNIT ( ) );
#212 = AXIS2_PLACEMENT_3D ( 'NONE', #470, #557, #185 ) ;
#213 = EDGE_CURVE ( 'NONE', #598, #53, #147, .T. ) ;
#214 = ADVANCED_FACE ( 'NONE', ( #510 ), #272, .T. ) ;
#215 = FACE_OUTER_BOUND ( 'NONE', #105, .T. ) ;
#216 = VERTEX_POINT ( 'NONE', #25 ) ;
#217 = AXIS2_PLACEMENT_3D ( 'NONE', #382, #51, #524 ) ;
#218 = LINE ( 'NONE', #339, #591 ) ;
#219 = EDGE_LOOP ( 'NONE', ( #317, #190 ) ) ;
#220 = EDGE_LOOP ( 'NONE', ( #83, #91 ) ) ;
#221 = CARTESIAN_POINT ( 'NONE',  ( 7.979727549226815975E-16, 6.000000000000000000, 0.0000000000000000000 ) ) ;
#222 = DIRECTION ( 'NONE',  ( 1.000000000000000000, 0.0000000000000000000, 0.0000000000000000000 ) ) ;
#223 = VECTOR ( 'NONE', #564, 1000.000000000000000 ) ;
#224 = ORIENTED_EDGE ( 'NONE', *, *, #402, .F. ) ;
#225 = AXIS2_PLACEMENT_3D ( 'NONE', #142, #198, #59 ) ;
#226 = CARTESIAN_POINT ( 'NONE',  ( 10.59999999999999964, 21.00000000000000355, 1.298125607096194385E-15 ) ) ;
#227 = AXIS2_PLACEMENT_3D ( 'NONE', #40, #302, #35 ) ;
#228 = EDGE_CURVE ( 'NONE', #547, #553, #388, .T. ) ;
#229 = VECTOR ( 'NONE', #556, 1000.000000000000114 ) ;
#230 = CONICAL_SURFACE ( 'NONE', #426, 12.89999999999999858, 0.7853981633974482790 ) ;
#231 = ORIENTED_EDGE ( 'NONE', *, *, #127, .T. ) ;
#232 = EDGE_LOOP ( 'NONE', ( #300, #308, #8, #257, #199 ) ) ;
#233 = CARTESIAN_POINT ( 'NONE',  ( 4.500000000000000000, 0.4999999999999970024, -2.100000000000000089 ) ) ;
#234 = CARTESIAN_POINT ( 'NONE',  ( 6.649772957689125890E-17, 0.5000000000000082157, 0.0000000000000000000 ) ) ;
#235 = AXIS2_PLACEMENT_3D ( 'NONE', #265, #544, #554 ) ;
#236 = AXIS2_PLACEMENT_3D ( 'NONE', #221, #263, #129 ) ;
#237 = LINE ( 'NONE', #240, #516 ) ;
#238 = EDGE_LOOP ( 'NONE', ( #471, #167, #135, #358 ) ) ;
#239 = ORIENTED_EDGE ( 'NONE', *, *, #466, .F. ) ;
#240 = CARTESIAN_POINT ( 'NONE',  ( -0.3499999999999970357, 21.00000000000000355, 0.0000000000000000000 ) ) ;
#241 = CARTESIAN_POINT ( 'NONE',  ( 6.600000000000001421, 21.00000000000000355, 0.0000000000000000000 ) ) ;
#242 = CARTESIAN_POINT ( 'NONE',  ( -4.500000000000000000, 0.5000000000000038858, 0.0000000000000000000 ) ) ;
#243 = DIRECTION ( 'NONE',  ( -1.329954591537802498E-16, -1.000000000000000000, 0.0000000000000000000 ) ) ;
#244 =( NAMED_UNIT ( * ) PLANE_ANGLE_UNIT ( ) SI_UNIT ( $, .RADIAN. ) );
#245 = CARTESIAN_POINT ( 'NONE',  ( 12.89999999999999858, 0.5000000000000065503, 1.579794370900085541E-15 ) ) ;
#246 = CIRCLE ( 'NONE', #363, 4.150000000000000355 ) ;
#247 = LINE ( 'NONE', #293, #111 ) ;
#248 = ORIENTED_EDGE ( 'NONE', *, *, #299, .F. ) ;
#249 = DIRECTION ( 'NONE',  ( -1.329954591537802498E-16, -1.000000000000000000, 0.0000000000000000000 ) ) ;
#250 = ADVANCED_FACE ( 'NONE', ( #595, #19, #455 ), #346, .F. ) ;
#251 = DIRECTION ( 'NONE',  ( -1.000000000000000000, 1.344746880602176212E-16, 0.0000000000000000000 ) ) ;
#252 = AXIS2_PLACEMENT_3D ( 'NONE', #461, #177, #417 ) ;
#253 = PRODUCT_CONTEXT ( 'NONE', #67, 'mechanical' ) ;
#254 = CARTESIAN_POINT ( 'NONE',  ( 12.59999999999999964, 21.00000000000000355, 0.0000000000000000000 ) ) ;
#255 = CIRCLE ( 'NONE', #93, 10.59999999999999609 ) ;
#256 = DIRECTION ( 'NONE',  ( 1.000000000000000000, 0.0000000000000000000, 0.0000000000000000000 ) ) ;
#257 = ORIENTED_EDGE ( 'NONE', *, *, #357, .F. ) ;
#258 = ORIENTED_EDGE ( 'NONE', *, *, #525, .T. ) ;
#259 = PRODUCT ( 'oxygenSourceCap', 'oxygenSourceCap', '', ( #253 ) ) ;
#260 = FACE_OUTER_BOUND ( 'NONE', #325, .T. ) ;
#261 = ORIENTED_EDGE ( 'NONE', *, *, #601, .T. ) ;
#262 = EDGE_CURVE ( 'NONE', #207, #125, #247, .T. ) ;
#263 = DIRECTION ( 'NONE',  ( 1.329954591537802498E-16, 1.000000000000000000, -0.0000000000000000000 ) ) ;
#264 = EDGE_CURVE ( 'NONE', #125, #481, #368, .T. ) ;
#265 = CARTESIAN_POINT ( 'NONE',  ( 1.963395301736838742E-31, 8.578207115418824536E-16, 0.0000000000000000000 ) ) ;
#266 = CIRCLE ( 'NONE', #353, 12.89999999999999858 ) ;
#267 = ORIENTED_EDGE ( 'NONE', *, *, #213, .F. ) ;
#268 = ORIENTED_EDGE ( 'NONE', *, *, #550, .T. ) ;
#269 = AXIS2_PLACEMENT_3D ( 'NONE', #192, #428, #137 ) ;
#270 = CARTESIAN_POINT ( 'NONE',  ( 4.500000000000000000, 0.4999999999999970024, 0.0000000000000000000 ) ) ;
#271 = CIRCLE ( 'NONE', #396, 2.100000000000000089 ) ;
#272 = CONICAL_SURFACE ( 'NONE', #328, 12.90000000000000036, 0.01578816173582483356 ) ;
#273 = CARTESIAN_POINT ( 'NONE',  ( -8.649999999999998579, 21.00000000000000355, 5.082284216461515156E-16 ) ) ;
#274 = VERTEX_POINT ( 'NONE', #502 ) ;
#275 = DIRECTION ( 'NONE',  ( -1.000000000000000000, 0.0000000000000000000, 0.0000000000000000000 ) ) ;
#276 = CARTESIAN_POINT ( 'NONE',  ( 6.649772957689125890E-17, 0.5000000000000082157, 0.0000000000000000000 ) ) ;
#277 = DIRECTION ( 'NONE',  ( 0.0000000000000000000, -1.000000000000000000, 0.0000000000000000000 ) ) ;
#278 = DIRECTION ( 'NONE',  ( 0.0000000000000000000, -1.000000000000000000, 0.0000000000000000000 ) ) ;
#279 = LINE ( 'NONE', #512, #448 ) ;
#280 = ORIENTED_EDGE ( 'NONE', *, *, #585, .T. ) ;
#281 = ORIENTED_EDGE ( 'NONE', *, *, #403, .T. ) ;
#282 = CARTESIAN_POINT ( 'NONE',  ( -12.90000000000000036, 2.000000000000003553, 0.0000000000000000000 ) ) ;
#283 =( NAMED_UNIT ( * ) PLANE_ANGLE_UNIT ( ) SI_UNIT ( $, .RADIAN. ) );
#284 = CARTESIAN_POINT ( 'NONE',  ( -12.89999999999999858, 0.5000000000000099920, 0.0000000000000000000 ) ) ;
#285 =( LENGTH_UNIT ( ) NAMED_UNIT ( * ) SI_UNIT ( .MILLI., .METRE. ) );
#286 = DIRECTION ( 'NONE',  ( 1.329954591537802498E-16, 1.000000000000000000, -0.0000000000000000000 ) ) ;
#287 = VECTOR ( 'NONE', #36, 1000.000000000000000 ) ;
#288 = EDGE_CURVE ( 'NONE', #464, #481, #205, .T. ) ;
#289 = CARTESIAN_POINT ( 'NONE',  ( 4.500000000000000000, 0.4999999999999970024, 0.0000000000000000000 ) ) ;
#290 = FACE_OUTER_BOUND ( 'NONE', #335, .T. ) ;
#291 = ORIENTED_EDGE ( 'NONE', *, *, #392, .T. ) ;
#292 = CARTESIAN_POINT ( 'NONE',  ( -4.909594743330586228E-16, 6.000000000000000888, 0.0000000000000000000 ) ) ;
#293 = CARTESIAN_POINT ( 'NONE',  ( 12.90000000000000036, 2.000000000000000000, 0.0000000000000000000 ) ) ;
#294 = FILL_AREA_STYLE ('',( #194 ) ) ;
#295 = PLANE ( 'NONE',  #11 ) ;
#296 = PRESENTATION_STYLE_ASSIGNMENT (( #394 ) ) ;
#297 = ADVANCED_FACE ( 'NONE', ( #95, #567 ), #173, .F. ) ;
#298 = EDGE_LOOP ( 'NONE', ( #552, #443, #61, #587 ) ) ;
#299 = EDGE_CURVE ( 'NONE', #274, #216, #503, .T. ) ;
#300 = ORIENTED_EDGE ( 'NONE', *, *, #531, .F. ) ;
#301 = CARTESIAN_POINT ( 'NONE',  ( 4.500000000000000000, 2.593411453498714280E-16, 2.600000000000000533 ) ) ;
#302 = DIRECTION ( 'NONE',  ( 1.329954591537802498E-16, 1.000000000000000000, -0.0000000000000000000 ) ) ;
#303 =( GEOMETRIC_REPRESENTATION_CONTEXT ( 3 ) GLOBAL_UNCERTAINTY_ASSIGNED_CONTEXT ( ( #449 ) ) GLOBAL_UNIT_ASSIGNED_CONTEXT ( ( #390, #244, #211 ) ) REPRESENTATION_CONTEXT ( 'NONE', 'WORKASPACE' ) );
#304 = SHAPE_DEFINITION_REPRESENTATION ( #476, #410 ) ;
#305 = LINE ( 'NONE', #284, #545 ) ;
#306 = LINE ( 'NONE', #483, #442 ) ;
#307 = EDGE_CURVE ( 'NONE', #511, #2, #110, .T. ) ;
#308 = ORIENTED_EDGE ( 'NONE', *, *, #384, .T. ) ;
#309 = ORIENTED_EDGE ( 'NONE', *, *, #203, .F. ) ;
#310 = FACE_OUTER_BOUND ( 'NONE', #465, .T. ) ;
#311 = ORIENTED_EDGE ( 'NONE', *, *, #438, .T. ) ;
#312 = ORIENTED_EDGE ( 'NONE', *, *, #371, .F. ) ;
#313 = DIRECTION ( 'NONE',  ( 0.0000000000000000000, -1.000000000000000000, 0.0000000000000000000 ) ) ;
#314 = DIRECTION ( 'NONE',  ( -1.000000000000000000, 1.329954591537802991E-16, 0.0000000000000000000 ) ) ;
#315 = FACE_OUTER_BOUND ( 'NONE', #542, .T. ) ;
#316 = LINE ( 'NONE', #241, #608 ) ;
#317 = ORIENTED_EDGE ( 'NONE', *, *, #213, .T. ) ;
#318 = CARTESIAN_POINT ( 'NONE',  ( 6.599999999999999645, 6.000000000000001776, 0.0000000000000000000 ) ) ;
#319 = DIRECTION ( 'NONE',  ( -1.329954591537802498E-16, -1.000000000000000000, 0.0000000000000000000 ) ) ;
#320 = EDGE_CURVE ( 'NONE', #172, #400, #462, .T. ) ;
#321 = DIRECTION ( 'NONE',  ( -1.329954591537802498E-16, -1.000000000000000000, 0.0000000000000000000 ) ) ;
#322 = CIRCLE ( 'NONE', #548, 4.150000000000000355 ) ;
#323 = ORIENTED_EDGE ( 'NONE', *, *, #288, .F. ) ;
#324 = FILL_AREA_STYLE_COLOUR ( '', #469 ) ;
#325 = EDGE_LOOP ( 'NONE', ( #456, #9, #496, #569, #239 ) ) ;
#326 = EDGE_CURVE ( 'NONE', #586, #72, #271, .T. ) ;
#327 = DIRECTION ( 'NONE',  ( 0.0000000000000000000, 0.0000000000000000000, 1.000000000000000000 ) ) ;
#328 = AXIS2_PLACEMENT_3D ( 'NONE', #398, #243, #536 ) ;
#329 =( NAMED_UNIT ( * ) SI_UNIT ( $, .STERADIAN. ) SOLID_ANGLE_UNIT ( ) );
#330 = DIRECTION ( 'NONE',  ( 1.329954591537802498E-16, 1.000000000000000000, -0.0000000000000000000 ) ) ;
#331 = CARTESIAN_POINT ( 'NONE',  ( 2.399999999999999911, 0.4999999999999970024, 2.571758278209441957E-16 ) ) ;
#332 = CARTESIAN_POINT ( 'NONE',  ( 2.659909183075607955E-16, 2.000000000000001776, 0.0000000000000000000 ) ) ;
#333 = CIRCLE ( 'NONE', #501, 4.150000000000000355 ) ;
#334 = FACE_BOUND ( 'NONE', #219, .T. ) ;
#335 = EDGE_LOOP ( 'NONE', ( #248, #436, #389, #412 ) ) ;
#336 = CARTESIAN_POINT ( 'NONE',  ( -4.499999999999999112, 1.456300277733893479E-15, 4.650000000000002132 ) ) ;
#337 = DIRECTION ( 'NONE',  ( 0.0000000000000000000, -1.000000000000000000, 0.0000000000000000000 ) ) ;
#338 = ADVANCED_FACE ( 'NONE', ( #487 ), #130, .F. ) ;
#339 = CARTESIAN_POINT ( 'NONE',  ( -4.500000000000000000, 0.5000000000000038858, -4.150000000000000355 ) ) ;
#340 = DIRECTION ( 'NONE',  ( 1.329954591537802498E-16, 1.000000000000000000, -0.0000000000000000000 ) ) ;
#341 = DIRECTION ( 'NONE',  ( 0.0000000000000000000, 0.0000000000000000000, 1.000000000000000000 ) ) ;
#342 = FACE_OUTER_BOUND ( 'NONE', #298, .T. ) ;
#343 = ORIENTED_EDGE ( 'NONE', *, *, #175, .T. ) ;
#344 = ORIENTED_EDGE ( 'NONE', *, *, #307, .T. ) ;
#345 = ADVANCED_FACE ( 'NONE', ( #607 ), #164, .F. ) ;
#346 = PLANE ( 'NONE',  #24 ) ;
#347 = EDGE_CURVE ( 'NONE', #156, #547, #404, .T. ) ;
#348 = CARTESIAN_POINT ( 'NONE',  ( 10.59999999999999964, 6.000000000000000888, 1.298125607096194385E-15 ) ) ;
#349 = CIRCLE ( 'NONE', #494, 4.150000000000000355 ) ;
#350 = ADVANCED_FACE ( 'NONE', ( #31 ), #397, .T. ) ;
#351 = ORIENTED_EDGE ( 'NONE', *, *, #402, .T. ) ;
#352 = CLOSED_SHELL ( 'NONE', ( #485, #30, #23, #393, #345, #202, #447, #350, #204, #250, #159, #214, #297, #63, #391, #338, #434, #18, #68 ) ) ;
#353 = AXIS2_PLACEMENT_3D ( 'NONE', #234, #573, #377 ) ;
#354 = VECTOR ( 'NONE', #181, 1000.000000000000000 ) ;
#355 = DIRECTION ( 'NONE',  ( 0.0000000000000000000, 0.0000000000000000000, 1.000000000000000000 ) ) ;
#356 = CONICAL_SURFACE ( 'NONE', #162, 4.150000000000000355, 0.7853981633974482790 ) ;
#357 = EDGE_CURVE ( 'NONE', #72, #521, #146, .T. ) ;
#358 = ORIENTED_EDGE ( 'NONE', *, *, #403, .F. ) ;
#359 = EDGE_LOOP ( 'NONE', ( #141, #378, #112, #490 ) ) ;
#360 = AXIS2_PLACEMENT_3D ( 'NONE', #549, #86, #222 ) ;
#361 = DIRECTION ( 'NONE',  ( -1.329954591537802498E-16, -1.000000000000000000, 0.0000000000000000000 ) ) ;
#362 = LINE ( 'NONE', #565, #354 ) ;
#363 = AXIS2_PLACEMENT_3D ( 'NONE', #242, #581, #15 ) ;
#364 = ORIENTED_EDGE ( 'NONE', *, *, #208, .F. ) ;
#365 = ORIENTED_EDGE ( 'NONE', *, *, #420, .F. ) ;
#366 = DIRECTION ( 'NONE',  ( 1.329954591537802498E-16, 1.000000000000000000, -0.0000000000000000000 ) ) ;
#367 = CARTESIAN_POINT ( 'NONE',  ( 7.979727549226818934E-16, 6.000000000000002665, 0.0000000000000000000 ) ) ;
#368 = CIRCLE ( 'NONE', #537, 12.90000000000000036 ) ;
#369 = ORIENTED_EDGE ( 'NONE', *, *, #492, .T. ) ;
#370 = CARTESIAN_POINT ( 'NONE',  ( 2.792904642229386430E-15, 21.00000000000000355, 0.0000000000000000000 ) ) ;
#371 = EDGE_CURVE ( 'NONE', #216, #274, #103, .T. ) ;
#372 = CARTESIAN_POINT ( 'NONE',  ( -4.500000000000000000, 0.5000000000000038858, 0.0000000000000000000 ) ) ;
#373 = AXIS2_PLACEMENT_3D ( 'NONE', #276, #134, #415 ) ;
#374 = EDGE_CURVE ( 'NONE', #522, #401, #602, .T. ) ;
#375 = CARTESIAN_POINT ( 'NONE',  ( 10.59999999999999787, 5.999999999999998224, 1.298125607096194188E-15 ) ) ;
#376 = CIRCLE ( 'NONE', #124, 2.100000000000000089 ) ;
#377 = DIRECTION ( 'NONE',  ( -1.000000000000000000, 1.344746880602176212E-16, 0.0000000000000000000 ) ) ;
#378 = ORIENTED_EDGE ( 'NONE', *, *, #288, .T. ) ;
#379 = CARTESIAN_POINT ( 'NONE',  ( 4.500000000000000000, 0.4999999999999970024, 0.0000000000000000000 ) ) ;
#380 = ORIENTED_EDGE ( 'NONE', *, *, #589, .T. ) ;
#381 = CARTESIAN_POINT ( 'NONE',  ( -0.3499999999999987566, 6.000000000000000888, 0.0000000000000000000 ) ) ;
#382 = CARTESIAN_POINT ( 'NONE',  ( 7.979727549226815975E-16, 6.000000000000000000, 0.0000000000000000000 ) ) ;
#383 = CARTESIAN_POINT ( 'NONE',  ( 2.400000000000000799, 6.000000000000001776, 2.571758278209441464E-16 ) ) ;
#384 = EDGE_CURVE ( 'NONE', #596, #180, #279, .T. ) ;
#385 = DIRECTION ( 'NONE',  ( 0.0000000000000000000, 0.0000000000000000000, 1.000000000000000000 ) ) ;
#386 = CARTESIAN_POINT ( 'NONE',  ( 12.89999999999999858, 5.999999999999998224, 1.579794370900085541E-15 ) ) ;
#387 = CIRCLE ( 'NONE', #77, 2.600000000000001421 ) ;
#388 = CIRCLE ( 'NONE', #197, 4.650000000000002132 ) ;
#389 = ORIENTED_EDGE ( 'NONE', *, *, #478, .F. ) ;
#390 =( LENGTH_UNIT ( ) NAMED_UNIT ( * ) SI_UNIT ( .MILLI., .METRE. ) );
#391 = ADVANCED_FACE ( 'NONE', ( #315 ), #28, .F. ) ;
#392 = EDGE_CURVE ( 'NONE', #401, #522, #255, .T. ) ;
#393 = ADVANCED_FACE ( 'NONE', ( #88 ), #509, .F. ) ;
#394 = SURFACE_STYLE_USAGE ( .BOTH. , #533 ) ;
#395 = DIRECTION ( 'NONE',  ( 1.000000000000000000, -1.329954591537802498E-16, 0.0000000000000000000 ) ) ;
#396 = AXIS2_PLACEMENT_3D ( 'NONE', #270, #313, #355 ) ;
#397 = CYLINDRICAL_SURFACE ( 'NONE', #236, 12.89999999999999858 ) ;
#398 = CARTESIAN_POINT ( 'NONE',  ( 2.659909183075607955E-16, 2.000000000000001776, 0.0000000000000000000 ) ) ;
#399 = ORIENTED_EDGE ( 'NONE', *, *, #262, .T. ) ;
#400 = VERTEX_POINT ( 'NONE', #49 ) ;
#401 = VERTEX_POINT ( 'NONE', #226 ) ;
#402 = EDGE_CURVE ( 'NONE', #209, #156, #38, .T. ) ;
#403 = EDGE_CURVE ( 'NONE', #79, #481, #362, .T. ) ;
#404 = LINE ( 'NONE', #460, #229 ) ;
#405 = CYLINDRICAL_SURFACE ( 'NONE', #217, 10.59999999999999787 ) ;
#406 = ORIENTED_EDGE ( 'NONE', *, *, #80, .F. ) ;
#407 = CARTESIAN_POINT ( 'NONE',  ( 4.500000000000002665, 21.00000000000000355, 0.0000000000000000000 ) ) ;
#408 = AXIS2_PLACEMENT_3D ( 'NONE', #139, #571, #13 ) ;
#409 = PRODUCT_DEFINITION_FORMATION_WITH_SPECIFIED_SOURCE ( 'ANY', '', #259, .NOT_KNOWN. ) ;
#410 = ADVANCED_BREP_SHAPE_REPRESENTATION ( 'oxygenSourceCap', ( #102, #85 ), #477 ) ;
#411 = CARTESIAN_POINT ( 'NONE',  ( -4.499999999999997335, 21.00000000000000355, 0.0000000000000000000 ) ) ;
#412 = ORIENTED_EDGE ( 'NONE', *, *, #601, .F. ) ;
#413 = ORIENTED_EDGE ( 'NONE', *, *, #170, .F. ) ;
#414 = DIRECTION ( 'NONE',  ( -1.000000000000000000, 1.344746880602175966E-16, 0.0000000000000000000 ) ) ;
#415 = DIRECTION ( 'NONE',  ( -1.000000000000000000, 1.344746880602176212E-16, 0.0000000000000000000 ) ) ;
#416 = FACE_BOUND ( 'NONE', #437, .T. ) ;
#417 = DIRECTION ( 'NONE',  ( -8.360113137237623981E-16, 0.0000000000000000000, 1.000000000000000000 ) ) ;
#418 = ORIENTED_EDGE ( 'NONE', *, *, #431, .F. ) ;
#419 = MECHANICAL_DESIGN_GEOMETRIC_PRESENTATION_REPRESENTATION (  '', ( #6 ), #453 ) ;
#420 = EDGE_CURVE ( 'NONE', #166, #79, #594, .T. ) ;
#421 = CARTESIAN_POINT ( 'NONE',  ( 2.792904642229386430E-15, 21.00000000000000355, 0.0000000000000000000 ) ) ;
#422 = DIRECTION ( 'NONE',  ( -1.329954591537802252E-16, -1.000000000000000000, -0.0000000000000000000 ) ) ;
#423 = SURFACE_STYLE_FILL_AREA ( #101 ) ;
#424 = ORIENTED_EDGE ( 'NONE', *, *, #307, .F. ) ;
#425 = ORIENTED_EDGE ( 'NONE', *, *, #120, .F. ) ;
#426 = AXIS2_PLACEMENT_3D ( 'NONE', #56, #429, #435 ) ;
#427 = CARTESIAN_POINT ( 'NONE',  ( -8.649999999999998579, 6.000000000000002665, 5.082284216461516143E-16 ) ) ;
#428 = DIRECTION ( 'NONE',  ( 0.0000000000000000000, -1.000000000000000000, 0.0000000000000000000 ) ) ;
#429 = DIRECTION ( 'NONE',  ( 1.329954591537801759E-16, 1.000000000000000000, -0.0000000000000000000 ) ) ;
#430 = AXIS2_PLACEMENT_3D ( 'NONE', #50, #92, #46 ) ;
#431 = EDGE_CURVE ( 'NONE', #53, #114, #7, .T. ) ;
#432 = DIRECTION ( 'NONE',  ( 0.0000000000000000000, -1.000000000000000000, 0.0000000000000000000 ) ) ;
#433 = CARTESIAN_POINT ( 'NONE',  ( 4.500000000000000000, 2.593411453498714280E-16, 0.0000000000000000000 ) ) ;
#434 = ADVANCED_FACE ( 'NONE', ( #215 ), #495, .T. ) ;
#435 = DIRECTION ( 'NONE',  ( -1.000000000000000000, 1.344746880602176212E-16, 0.0000000000000000000 ) ) ;
#436 = ORIENTED_EDGE ( 'NONE', *, *, #203, .T. ) ;
#437 = EDGE_LOOP ( 'NONE', ( #344, #131 ) ) ;
#438 = EDGE_CURVE ( 'NONE', #400, #172, #468, .T. ) ;
#439 =( LENGTH_UNIT ( ) NAMED_UNIT ( * ) SI_UNIT ( .MILLI., .METRE. ) );
#440 = CARTESIAN_POINT ( 'NONE',  ( 7.979727549226815975E-16, 6.000000000000000000, 0.0000000000000000000 ) ) ;
#441 =( NAMED_UNIT ( * ) SI_UNIT ( $, .STERADIAN. ) SOLID_ANGLE_UNIT ( ) );
#442 = VECTOR ( 'NONE', #206, 1000.000000000000000 ) ;
#443 = ORIENTED_EDGE ( 'NONE', *, *, #438, .F. ) ;
#444 = EDGE_LOOP ( 'NONE', ( #592, #380, #291, #534 ) ) ;
#445 = CARTESIAN_POINT ( 'NONE',  ( -4.500000000000000000, 1.456300277733893479E-15, 0.0000000000000000000 ) ) ;
#446 = EDGE_CURVE ( 'NONE', #82, #596, #376, .T. ) ;
#447 = ADVANCED_FACE ( 'NONE', ( #17 ), #155, .T. ) ;
#448 = VECTOR ( 'NONE', #94, 1000.000000000000000 ) ;
#449 = UNCERTAINTY_MEASURE_WITH_UNIT (LENGTH_MEASURE( 1.000000000000000082E-05 ), #390, 'distance_accuracy_value', 'NONE');
#450 = ORIENTED_EDGE ( 'NONE', *, *, #347, .T. ) ;
#451 = ORIENTED_EDGE ( 'NONE', *, *, #80, .T. ) ;
#452 = PRESENTATION_LAYER_ASSIGNMENT (  '', '', ( #161 ) ) ;
#453 =( GEOMETRIC_REPRESENTATION_CONTEXT ( 3 ) GLOBAL_UNCERTAINTY_ASSIGNED_CONTEXT ( ( #14 ) ) GLOBAL_UNIT_ASSIGNED_CONTEXT ( ( #285, #283, #329 ) ) REPRESENTATION_CONTEXT ( 'NONE', 'WORKASPACE' ) );
#454 = CARTESIAN_POINT ( 'NONE',  ( 4.500000000000000000, 0.4999999999999970024, -2.100000000000000089 ) ) ;
#455 = FACE_BOUND ( 'NONE', #579, .T. ) ;
#456 = ORIENTED_EDGE ( 'NONE', *, *, #384, .F. ) ;
#457 = ORIENTED_EDGE ( 'NONE', *, *, #228, .F. ) ;
#458 = DIRECTION ( 'NONE',  ( -0.01578750583521164319, -0.9998753695633786354, 1.933411848761193447E-18 ) ) ;
#459 = AXIS2_PLACEMENT_3D ( 'NONE', #379, #515, #99 ) ;
#460 = CARTESIAN_POINT ( 'NONE',  ( -4.499999999999999112, 0.5000000000000038858, 4.150000000000000355 ) ) ;
#461 = CARTESIAN_POINT ( 'NONE',  ( -4.500000000000000000, 0.5000000000000038858, 0.0000000000000000000 ) ) ;
#462 = CIRCLE ( 'NONE', #227, 10.59999999999999964 ) ;
#463 = CYLINDRICAL_SURFACE ( 'NONE', #472, 10.59999999999999787 ) ;
#464 = VERTEX_POINT ( 'NONE', #506 ) ;
#465 = EDGE_LOOP ( 'NONE', ( #504, #224, #1, #343, #457 ) ) ;
#466 = EDGE_CURVE ( 'NONE', #180, #521, #387, .T. ) ;
#467 = CARTESIAN_POINT ( 'NONE',  ( 6.649772957689125890E-17, 0.5000000000000082157, 0.0000000000000000000 ) ) ;
#468 = CIRCLE ( 'NONE', #96, 10.59999999999999964 ) ;
#469 = COLOUR_RGB ( '',0.7921568627450980005, 0.8196078431372548767, 0.9333333333333333481 ) ;
#470 = CARTESIAN_POINT ( 'NONE',  ( -4.499999999999997335, 21.00000000000000355, 0.0000000000000000000 ) ) ;
#471 = ORIENTED_EDGE ( 'NONE', *, *, #478, .T. ) ;
#472 = AXIS2_PLACEMENT_3D ( 'NONE', #440, #201, #210 ) ;
#473 = EDGE_LOOP ( 'NONE', ( #369, #157 ) ) ;
#474 = CARTESIAN_POINT ( 'NONE',  ( 4.500000000000000000, 2.593411453498714280E-16, 0.0000000000000000000 ) ) ;
#475 = CARTESIAN_POINT ( 'NONE',  ( -12.89999999999999858, 0.5000000000000099920, 0.0000000000000000000 ) ) ;
#476 = PRODUCT_DEFINITION_SHAPE ( 'NONE', 'NONE',  #27 ) ;
#477 =( GEOMETRIC_REPRESENTATION_CONTEXT ( 3 ) GLOBAL_UNCERTAINTY_ASSIGNED_CONTEXT ( ( #160 ) ) GLOBAL_UNIT_ASSIGNED_CONTEXT ( ( #439, #22, #441 ) ) REPRESENTATION_CONTEXT ( 'NONE', 'WORKASPACE' ) );
#478 = EDGE_CURVE ( 'NONE', #79, #166, #266, .T. ) ;
#479 = DIRECTION ( 'NONE',  ( -1.000000000000000000, 1.329954591537802498E-16, 0.0000000000000000000 ) ) ;
#480 = CIRCLE ( 'NONE', #34, 12.90000000000000036 ) ;
#481 = VERTEX_POINT ( 'NONE', #282 ) ;
#482 = CARTESIAN_POINT ( 'NONE',  ( -4.500000000000000000, 1.456300277733893479E-15, -4.650000000000002132 ) ) ;
#483 = CARTESIAN_POINT ( 'NONE',  ( -10.59999999999999787, 6.000000000000001776, 0.0000000000000000000 ) ) ;
#484 = AXIS2_PLACEMENT_3D ( 'NONE', #411, #128, #256 ) ;
#485 = ADVANCED_FACE ( 'NONE', ( #590 ), #575, .F. ) ;
#486 = CARTESIAN_POINT ( 'NONE',  ( -4.499999999999999112, 0.5000000000000038858, 4.150000000000000355 ) ) ;
#487 = FACE_OUTER_BOUND ( 'NONE', #98, .T. ) ;
#488 = FACE_OUTER_BOUND ( 'NONE', #580, .T. ) ;
#489 = DIRECTION ( 'NONE',  ( -1.329954591537802498E-16, -1.000000000000000000, 0.0000000000000000000 ) ) ;
#490 = ORIENTED_EDGE ( 'NONE', *, *, #262, .F. ) ;
#491 = ORIENTED_EDGE ( 'NONE', *, *, #513, .T. ) ;
#492 = EDGE_CURVE ( 'NONE', #553, #547, #121, .T. ) ;
#493 = DIRECTION ( 'NONE',  ( -1.000000000000000000, 1.344746880602175966E-16, 0.0000000000000000000 ) ) ;
#494 = AXIS2_PLACEMENT_3D ( 'NONE', #71, #66, #582 ) ;
#495 = CONICAL_SURFACE ( 'NONE', #373, 12.89999999999999858, 0.7853981633974482790 ) ;
#496 = ORIENTED_EDGE ( 'NONE', *, *, #550, .F. ) ;
#497 = ORIENTED_EDGE ( 'NONE', *, *, #492, .F. ) ;
#498 = CIRCLE ( 'NONE', #572, 2.100000000000000089 ) ;
#499 = FACE_OUTER_BOUND ( 'NONE', #444, .T. ) ;
#500 = ORIENTED_EDGE ( 'NONE', *, *, #371, .T. ) ;
#501 = AXIS2_PLACEMENT_3D ( 'NONE', #188, #432, #385 ) ;
#502 = CARTESIAN_POINT ( 'NONE',  ( 12.39999999999999147, -7.913229819649912440E-16, 1.549178200921401162E-15 ) ) ;
#503 = CIRCLE ( 'NONE', #235, 12.39999999999999147 ) ;
#504 = ORIENTED_EDGE ( 'NONE', *, *, #347, .F. ) ;
#505 = ORIENTED_EDGE ( 'NONE', *, *, #563, .F. ) ;
#506 = CARTESIAN_POINT ( 'NONE',  ( -12.59999999999999254, 21.00000000000000355, 1.561424668912874914E-15 ) ) ;
#507 = MECHANICAL_DESIGN_GEOMETRIC_PRESENTATION_REPRESENTATION (  '', ( #161 ), #303 ) ;
#508 = DIRECTION ( 'NONE',  ( -1.000000000000000000, 0.0000000000000000000, 0.0000000000000000000 ) ) ;
#509 = CYLINDRICAL_SURFACE ( 'NONE', #430, 2.099999999999999645 ) ;
#510 = FACE_OUTER_BOUND ( 'NONE', #41, .T. ) ;
#511 = VERTEX_POINT ( 'NONE', #318 ) ;
#512 = CARTESIAN_POINT ( 'NONE',  ( 4.500000000000000000, 0.4999999999999970024, 2.100000000000000089 ) ) ;
#513 = EDGE_CURVE ( 'NONE', #521, #180, #530, .T. ) ;
#514 = DIRECTION ( 'NONE',  ( 1.329954591537802498E-16, 1.000000000000000000, -0.0000000000000000000 ) ) ;
#515 = DIRECTION ( 'NONE',  ( 0.0000000000000000000, -1.000000000000000000, 0.0000000000000000000 ) ) ;
#516 = VECTOR ( 'NONE', #145, 1000.000000000000000 ) ;
#517 = CARTESIAN_POINT ( 'NONE',  ( 2.792904642229386430E-15, 21.00000000000000355, 0.0000000000000000000 ) ) ;
#518 = EDGE_LOOP ( 'NONE', ( #29, #450, #497, #562, #406 ) ) ;
#519 = AXIS2_PLACEMENT_3D ( 'NONE', #154, #117, #251 ) ;
#520 = CARTESIAN_POINT ( 'NONE',  ( -8.650000000000000355, 0.5000000000000038858, 5.082284216461517129E-16 ) ) ;
#521 = VERTEX_POINT ( 'NONE', #570 ) ;
#522 = VERTEX_POINT ( 'NONE', #12 ) ;
#523 = DIRECTION ( 'NONE',  ( 0.0000000000000000000, 0.0000000000000000000, 1.000000000000000000 ) ) ;
#524 = DIRECTION ( 'NONE',  ( -1.000000000000000000, 1.636531581110195656E-16, 0.0000000000000000000 ) ) ;
#525 = EDGE_CURVE ( 'NONE', #156, #114, #333, .T. ) ;
#526 = CARTESIAN_POINT ( 'NONE',  ( 0.0000000000000000000, 0.0000000000000000000, 0.0000000000000000000 ) ) ;
#527 = CARTESIAN_POINT ( 'NONE',  ( -4.500000000000000000, 0.5000000000000038858, -4.150000000000000355 ) ) ;
#528 = SURFACE_STYLE_FILL_AREA ( #294 ) ;
#529 = DIRECTION ( 'NONE',  ( 1.000000000000000000, -2.090028284309405995E-16, 0.0000000000000000000 ) ) ;
#530 = CIRCLE ( 'NONE', #153, 2.600000000000001421 ) ;
#531 = EDGE_CURVE ( 'NONE', #596, #586, #178, .T. ) ;
#532 = EDGE_LOOP ( 'NONE', ( #97, #140 ) ) ;
#533 = SURFACE_SIDE_STYLE ('',( #528 ) ) ;
#534 = ORIENTED_EDGE ( 'NONE', *, *, #187, .F. ) ;
#535 = DIRECTION ( 'NONE',  ( 1.000000000000000000, 0.0000000000000000000, 0.0000000000000000000 ) ) ;
#536 = DIRECTION ( 'NONE',  ( 1.000000000000000000, -1.344746880602175966E-16, 0.0000000000000000000 ) ) ;
#537 = AXIS2_PLACEMENT_3D ( 'NONE', #87, #169, #414 ) ;
#538 = DIRECTION ( 'NONE',  ( 1.000000000000000000, 0.0000000000000000000, 0.0000000000000000000 ) ) ;
#539 = VECTOR ( 'NONE', #340, 1000.000000000000000 ) ;
#540 = CARTESIAN_POINT ( 'NONE',  ( 12.89999999999999858, 0.5000000000000065503, 1.579794370900085541E-15 ) ) ;
#541 = AXIS2_PLACEMENT_3D ( 'NONE', #467, #176, #566 ) ;
#542 = EDGE_LOOP ( 'NONE', ( #418, #267, #196, #351, #258 ) ) ;
#543 = EDGE_LOOP ( 'NONE', ( #311, #132 ) ) ;
#544 = DIRECTION ( 'NONE',  ( -1.329954591537802498E-16, -1.000000000000000000, 0.0000000000000000000 ) ) ;
#545 = VECTOR ( 'NONE', #57, 1000.000000000000000 ) ;
#546 = VECTOR ( 'NONE', #588, 1000.000000000000000 ) ;
#547 = VERTEX_POINT ( 'NONE', #336 ) ;
#548 = AXIS2_PLACEMENT_3D ( 'NONE', #372, #278, #5 ) ;
#549 = CARTESIAN_POINT ( 'NONE',  ( 4.500000000000000888, 6.000000000000001776, 0.0000000000000000000 ) ) ;
#550 = EDGE_CURVE ( 'NONE', #72, #82, #498, .T. ) ;
#551 = VECTOR ( 'NONE', #20, 1000.000000000000000 ) ;
#552 = ORIENTED_EDGE ( 'NONE', *, *, #589, .F. ) ;
#553 = VERTEX_POINT ( 'NONE', #482 ) ;
#554 = DIRECTION ( 'NONE',  ( -1.000000000000000000, 1.329954591537802745E-16, 0.0000000000000000000 ) ) ;
#555 = AXIS2_PLACEMENT_3D ( 'NONE', #560, #319, #605 ) ;
#556 = DIRECTION ( 'NONE',  ( 8.659560562354932858E-17, -0.7071067811865474617, 0.7071067811865474617 ) ) ;
#557 = DIRECTION ( 'NONE',  ( -1.329954591537802252E-16, -1.000000000000000000, -0.0000000000000000000 ) ) ;
#558 = VECTOR ( 'NONE', #191, 1000.000000000000000 ) ;
#559 = FACE_OUTER_BOUND ( 'NONE', #518, .T. ) ;
#560 = CARTESIAN_POINT ( 'NONE',  ( 1.963395301736838742E-31, 8.578207115418824536E-16, 0.0000000000000000000 ) ) ;
#561 = VERTEX_POINT ( 'NONE', #527 ) ;
#562 = ORIENTED_EDGE ( 'NONE', *, *, #175, .F. ) ;
#563 = EDGE_CURVE ( 'NONE', #598, #209, #237, .T. ) ;
#564 = DIRECTION ( 'NONE',  ( -1.329954591537802252E-16, -1.000000000000000000, -0.0000000000000000000 ) ) ;
#565 = CARTESIAN_POINT ( 'NONE',  ( -12.89999999999999858, 6.000000000000001776, 0.0000000000000000000 ) ) ;
#566 = DIRECTION ( 'NONE',  ( -1.000000000000000000, 1.344746880602176212E-16, 0.0000000000000000000 ) ) ;
#567 = FACE_OUTER_BOUND ( 'NONE', #532, .T. ) ;
#568 = EDGE_LOOP ( 'NONE', ( #500, #604 ) ) ;
#569 = ORIENTED_EDGE ( 'NONE', *, *, #357, .T. ) ;
#570 = CARTESIAN_POINT ( 'NONE',  ( 4.500000000000000000, 2.593411453498714280E-16, -2.600000000000000533 ) ) ;
#571 = DIRECTION ( 'NONE',  ( 0.0000000000000000000, -1.000000000000000000, 0.0000000000000000000 ) ) ;
#572 = AXIS2_PLACEMENT_3D ( 'NONE', #289, #277, #327 ) ;
#573 = DIRECTION ( 'NONE',  ( 1.329954591537801759E-16, 1.000000000000000000, -0.0000000000000000000 ) ) ;
#574 = DIRECTION ( 'NONE',  ( -1.000000000000000000, 0.0000000000000000000, 0.0000000000000000000 ) ) ;
#575 = CONICAL_SURFACE ( 'NONE', #269, 2.100000000000000089, 0.7853981633974526089 ) ;
#576 = DIRECTION ( 'NONE',  ( 1.329954591537802498E-16, 1.000000000000000000, -0.0000000000000000000 ) ) ;
#577 = PRESENTATION_STYLE_ASSIGNMENT (( #144 ) ) ;
#578 = CARTESIAN_POINT ( 'NONE',  ( -4.500000000000000000, 0.5000000000000038858, 0.0000000000000000000 ) ) ;
#579 = EDGE_LOOP ( 'NONE', ( #491, #122 ) ) ;
#580 = EDGE_LOOP ( 'NONE', ( #123, #603, #281, #189 ) ) ;
#581 = DIRECTION ( 'NONE',  ( 0.0000000000000000000, -1.000000000000000000, 0.0000000000000000000 ) ) ;
#582 = DIRECTION ( 'NONE',  ( 1.000000000000000000, -2.090028284309405995E-16, 0.0000000000000000000 ) ) ;
#583 = CARTESIAN_POINT ( 'NONE',  ( -0.3499999999999996447, 0.5000000000000038858, 0.0000000000000000000 ) ) ;
#584 = CYLINDRICAL_SURFACE ( 'NONE', #519, 12.89999999999999858 ) ;
#585 = EDGE_CURVE ( 'NONE', #561, #209, #246, .T. ) ;
#586 = VERTEX_POINT ( 'NONE', #331 ) ;
#587 = ORIENTED_EDGE ( 'NONE', *, *, #374, .T. ) ;
#588 = DIRECTION ( 'NONE',  ( 0.7071067811865476838, 0.7071067811865474617, 8.659560562354934091E-17 ) ) ;
#589 = EDGE_CURVE ( 'NONE', #172, #401, #78, .T. ) ;
#590 = FACE_OUTER_BOUND ( 'NONE', #232, .T. ) ;
#591 = VECTOR ( 'NONE', #109, 1000.000000000000114 ) ;
#592 = ORIENTED_EDGE ( 'NONE', *, *, #320, .F. ) ;
#593 = EDGE_CURVE ( 'NONE', #464, #207, #195, .T. ) ;
#594 = CIRCLE ( 'NONE', #541, 12.89999999999999858 ) ;
#595 = FACE_OUTER_BOUND ( 'NONE', #568, .T. ) ;
#596 = VERTEX_POINT ( 'NONE', #108 ) ;
#597 = DIRECTION ( 'NONE',  ( 1.000000000000000000, 0.0000000000000000000, 0.0000000000000000000 ) ) ;
#598 = VERTEX_POINT ( 'NONE', #381 ) ;
#599 = AXIS2_PLACEMENT_3D ( 'NONE', #151, #118, #26 ) ;
#600 = AXIS2_PLACEMENT_3D ( 'NONE', #517, #286, #574 ) ;
#601 = EDGE_CURVE ( 'NONE', #216, #79, #305, .T. ) ;
#602 = CIRCLE ( 'NONE', #76, 10.59999999999999609 ) ;
#603 = ORIENTED_EDGE ( 'NONE', *, *, #420, .T. ) ;
#604 = ORIENTED_EDGE ( 'NONE', *, *, #299, .T. ) ;
#605 = DIRECTION ( 'NONE',  ( -1.000000000000000000, 1.329954591537802745E-16, 0.0000000000000000000 ) ) ;
#606 = CARTESIAN_POINT ( 'NONE',  ( 2.659909183075607955E-16, 2.000000000000001776, 0.0000000000000000000 ) ) ;
#607 = FACE_OUTER_BOUND ( 'NONE', #143, .T. ) ;
#608 = VECTOR ( 'NONE', #422, 1000.000000000000000 ) ;
ENDSEC;
END-ISO-10303-21;
